<svg xmlns="http://www.w3.org/2000/svg" width="185" height="185" viewBox="0 0 185 185">
  <g id="Group_5243" data-name="Group 5243" transform="translate(-11584 -20831)">
    <g id="Rectangle_2978" data-name="Rectangle 2978" transform="translate(11584 20831)" fill="#fff" stroke="#4db4b7" stroke-width="3">
      <rect width="185" height="185" rx="29" stroke="none"/>
      <rect x="1.5" y="1.5" width="182" height="182" rx="27.5" fill="none"/>
    </g>
    <path id="Icon-123" d="M63.69,13A27.2,27.2,0,0,0,37.35,34.355a19.19,19.19,0,0,0-16.038,14.5A22.607,22.607,0,0,0,0,71.635c0,12.574,10,22.8,22.292,22.8h35.03V91.18H22.292a19.548,19.548,0,0,1,.034-39.087h.006l1.583.035.006-.041a1.612,1.612,0,0,0,1.555-1.625A1.633,1.633,0,0,0,24.59,49,15.934,15.934,0,0,1,38.771,37.488l.917-.061q.059,0,.118,0A1.611,1.611,0,0,0,41.4,35.8a1.637,1.637,0,0,0-.765-1.39A23.692,23.692,0,0,1,86.022,32.1l.012.035a1.664,1.664,0,0,0-.053.414,1.589,1.589,0,0,0,3.15.328,18.384,18.384,0,0,1,3.219-.328A19.351,19.351,0,0,1,111.458,52.09a20.055,20.055,0,0,1-.65,4.978l-.417,1.613,1.586.385a16.321,16.321,0,0,1-3.7,32.114H73.244v3.257h35.03a19.6,19.6,0,0,0,5.962-38.1,22.827,22.827,0,0,0,.407-4.247c0-12.574-10-22.8-22.292-22.8a21.327,21.327,0,0,0-3.863.363A27.191,27.191,0,0,0,63.69,13ZM46.176,34.174A1.629,1.629,0,1,0,47.768,35.8,1.611,1.611,0,0,0,46.176,34.174Zm6.369,3.257a1.629,1.629,0,1,0,1.592,1.629A1.611,1.611,0,0,0,52.545,37.431Zm36.622,0a1.629,1.629,0,1,0,1.592,1.629A1.611,1.611,0,0,0,89.167,37.431ZM57.321,42.317a1.629,1.629,0,1,0,1.592,1.629A1.611,1.611,0,0,0,57.321,42.317Zm31.845,1.629a1.629,1.629,0,1,0,1.592,1.629A1.611,1.611,0,0,0,89.167,43.946ZM30.253,48.832a1.629,1.629,0,1,0,1.592,1.629A1.611,1.611,0,0,0,30.253,48.832Zm6.369,3.257a1.629,1.629,0,1,0,1.592,1.629A1.611,1.611,0,0,0,36.622,52.09ZM41.4,56.976A1.629,1.629,0,1,0,42.991,58.6,1.611,1.611,0,0,0,41.4,56.976Zm23.884,4.377L51.5,75.452l2.251,2.3L63.69,67.588V109.1h3.185V67.588l9.939,10.167,2.252-2.3Zm44.583.509a1.629,1.629,0,1,0,1.592,1.629A1.611,1.611,0,0,0,109.866,61.862Zm-3.185,4.886a1.629,1.629,0,1,0,1.592,1.629A1.611,1.611,0,0,0,106.681,66.748Zm-41.4,45.6a1.629,1.629,0,1,0,1.592,1.629A1.611,1.611,0,0,0,65.283,112.353Zm0,6.515a1.629,1.629,0,1,0,1.592,1.629A1.611,1.611,0,0,0,65.283,118.868Z" transform="translate(11612.5 20855.5)" fill="#4db4b7" stroke="#4db4b7" stroke-width="0.5"/>
  </g>
</svg>
